{
  "profiles": {
    "Docker Compose": {
      "commandName": "DockerCompose",
      "commandVersion": "1.0",
      "serviceActions": {
        "distributedcache.webapi": "StartDebugging",
        "usersservice.webapi": "StartDebugging"
      }
    }
  }
}